{
  "Profile": {
    "ID": "361842",
    "Name": "Red Lion Hotel Tacoma",
    "DirectoryID": "328",
    "BusinessName": "Red Lion Hotel Tacoma",
    "AddressLine1": "8402 S. Hosmer St",
    "City": "Tacoma",
    "State": "WAUS",
    "ZipCode": "98444",
    "Phone": "(253) 548-1212",
    "CustomFields": {
      "Filter1": "Tacoma",
      "Filter2": "http://admin.localsearchprofiles.com/Public/DirectoryLogo/RLH_Corp_Logo_Color_RGB.png"
    }
  },
  "ThirdPartyMetrics": [
    {
      "ThirdPartyProviderID": "GoogleMyBusiness",
      "ThirdPartyName": "Google My Business",
      "StartDate": {
        "Year": 2018,
        "Month": "May",
        "Day": 1
      },
      "EndDate": {
        "Year": 2018,
        "Month": "May",
        "Day": 30
      },
      "Aggregation": "Monthly",
      "Metrics": [
        {
          "MetricID": "GoogleMyBusiness_ACTIONS_WEBSITE",
          "MetricName": "Clicks to Website",
          "MetricFriendlyName": "Clicks to Website",
          "MetricDescription": "How many people visited your website from your Google My Business listing.",
          "Summary": {
            "Average": 365.0,
            "Max": 365.0,
            "Min": 365.0
          },
          "MetricValues": [
            {
              "Date": "2018-05-01T00:00:00",
              "Value": "365",
              "DisplayValue": "365"
            }
          ]
        },
        {
          "MetricID": "GoogleMyBusiness_QUERIES_DIRECT",
          "MetricName": "Direct Queries",
          "MetricFriendlyName": "Direct Queries",
          "MetricDescription": "How many people searched for and found you from a direct search (your name).",
          "Summary": {
            "Average": 3335.0,
            "Max": 3335.0,
            "Min": 3335.0
          },
          "MetricValues": [
            {
              "Date": "2018-05-01T00:00:00",
              "Value": "3.335",
              "DisplayValue": "3.335"
            }
          ]
        },
        {
          "MetricID": "GoogleMyBusiness_QUERIES_INDIRECT",
          "MetricName": "Discover Queries",
          "MetricFriendlyName": "Discover Queries",
          "MetricDescription": "How many people searched for services or products that you offer and which you appeared.",
          "Summary": {
            "Average": 19926.0,
            "Max": 19926.0,
            "Min": 19926.0
          },
          "MetricValues": [
            {
              "Date": "2018-05-01T00:00:00",
              "Value": "19.926",
              "DisplayValue": "19.926"
            }
          ]
        },
        {
          "MetricID": "GoogleMyBusiness_ACTIONS_DRIVING_DIRECTIONS",
          "MetricName": "Driving Directions",
          "MetricFriendlyName": "Driving Directions",
          "MetricDescription": "How many people requested driving directions from your Google My Business listing.",
          "Summary": {
            "Average": 799.0,
            "Max": 799.0,
            "Min": 799.0
          },
          "MetricValues": [
            {
              "Date": "2018-05-01T00:00:00",
              "Value": "799",
              "DisplayValue": "799"
            }
          ]
        },
        {
          "MetricID": "GoogleMyBusiness_VIEWS_MAPS",
          "MetricName": "Map Views",
          "MetricFriendlyName": "Map Views",
          "MetricDescription": "How many times people saw your business on Google Maps.",
          "Summary": {
            "Average": 38660.0,
            "Max": 38660.0,
            "Min": 38660.0
          },
          "MetricValues": [
            {
              "Date": "2018-05-01T00:00:00",
              "Value": "38.660",
              "DisplayValue": "38.660"
            }
          ]
        },
        {
          "MetricID": "GoogleMyBusiness_ACTIONS_PHONE",
          "MetricName": "Phone Calls",
          "MetricFriendlyName": "Phone Calls",
          "MetricDescription": "How many people initiated a phone call by clicking on a phone number or “Call” button from your Google My Business listing.",
          "Summary": {
            "Average": 238.0,
            "Max": 238.0,
            "Min": 238.0
          },
          "MetricValues": [
            {
              "Date": "2018-05-01T00:00:00",
              "Value": "238",
              "DisplayValue": "238"
            }
          ]
        },
        {
          "MetricID": "GoogleMyBusiness_VIEWS_SEARCH",
          "MetricName": "Search Views",
          "MetricFriendlyName": "Search Views",
          "MetricDescription": "How many times people saw your business on Google Search.",
          "Summary": {
            "Average": 24757.0,
            "Max": 24757.0,
            "Min": 24757.0
          },
          "MetricValues": [
            {
              "Date": "2018-05-01T00:00:00",
              "Value": "24.757",
              "DisplayValue": "24.757"
            }
          ]
        }
      ]
    }
  ]
}